Data modeling in R
…
While there is no doubt that the population has been growing in recent years, its not clear if all states are contributing equally to this growth. Manipulating data to explore this has the potential to get quite cumbersome, but the modelr tools are designed to make this kind of task fairly painless.

Grouped data frames versus nested data frames

Were going to create a nested data frame, which we do by first creating a grouped data frame (which youve already done in another context).

Task 9: Create a data frame called by_state from the main data frame, that groups by state, and inspect it.

# SOLUTION
by_state <- ld.prism.pop %>% group_by(state)
by_state

## # A tibble: 46,630 x 11
## # Groups:   state [49]
##    state  county  cases  year  fips  prcp avtemp str_year   size log10size
##    <chr>  <chr>   <int> <dbl> <dbl> <dbl>  <dbl> <chr>     <int>     <dbl>
##  1 Alaba Autaug     0 2000. 1001.  959.   18.1 pop2000   43872      4.64
##  2 Alaba Baldwi     1 2000. 1003. 1019.   19.7 pop2000  141358      5.15
##  3 Alaba Barbou     0 2000. 1005. 1006.   18.1 pop2000   29035      4.46
##  4 Alaba Bibb C     0 2000. 1007.  994.   17.4 pop2000   19936      4.30
##  5 Alaba Blount     0 2000. 1009. 1179.   16.3 pop2000   51181      4.71
##  6 Alaba Bulloc     0 2000. 1011. 1068.   17.7 pop2000   11604      4.06
##  7 Alaba Butler     0 2000. 1013. 1019.   18.7 pop2000   21313      4.33
##  8 Alaba Calhou     0 2000. 1015. 1004.   16.1 pop2000  111342      5.05
##  9 Alaba Chambe     0 2000. 1017. 1043.   16.4 pop2000   36593      4.56
## 10 Alaba Cherok     0 2000. 1019. 1146.   15.6 pop2000   24053      4.38
## # ... with 46,620 more rows, and 1 more variable: log10cases <dbl>

Task 10: Next, update this new data frame so that it is nested (simply pass it to nest). Again, inspect the data frame by typing its name in the console so see how things changed.

# SOLUTION
by_state %<>% nest
by_state

## # A tibble: 49 x 2
##    state                data                 
##    <chr>                <list>               
##  1 Alabama              <tibble [1,005  10]>
##  2 Arizona              <tibble [225  10]>  
##  3 Arkansas             <tibble [1,125  10]>
##  4 California           <tibble [870  10]>  
##  5 Colorado             <tibble [960  10]>  
##  6 Connecticut          <tibble [120  10]>  
##  7 Delaware             <tibble [45  10]>   
##  8 District of Columbia <tibble [15  10]>   
##  9 Florida              <tibble [1,005  10]>
## 10 Georgia              <tibble [2,385  10]>
## # ... with 39 more rows

You should see that by_state has a list-column called data. List elements are accessed with [[]]. For example to see the data for Georgia, the 10th state in the alphabetized data frame, we would type by_state$data[[10]] in the console.

Task 11: Display the Georgia data in the console window.

# SOLUTION
by_state$data[[10]]

## # A tibble: 2,385 x 10
##    county         cases  year   fips  prcp avtemp str_year  size log10size
##    <chr>          <int> <dbl>  <dbl> <dbl>  <dbl> <chr>    <int>     <dbl>
##  1 Appling County     0 2000. 13001.  965.   18.6 pop2000  17408      4.24
##  2 Atkinson Coun     0 2000. 13003. 1055.   18.7 pop2000   7610      3.88
##  3 Bacon County       0 2000. 13005. 1054.   18.8 pop2000  10122      4.01
##  4 Baker County       0 2000. 13007.  963.   18.9 pop2000   4053      3.61
##  5 Baldwin County     0 2000. 13009.  866.   17.3 pop2000  44738      4.65
##  6 Banks County       0 2000. 13011.  993.   15.6 pop2000  14504      4.16
##  7 Barrow County      0 2000. 13013.  979.   15.9 pop2000  46561      4.67
##  8 Bartow County      0 2000. 13015. 1104.   15.6 pop2000  76703      4.88
##  9 Ben Hill Coun     0 2000. 13017. 1102.   18.4 pop2000  17473      4.24
## 10 Berrien County     0 2000. 13019. 1083.   18.7 pop2000  16250      4.21
## # ... with 2,375 more rows, and 1 more variable: log10cases <dbl>
…
