Data modeling in R
…
While there is no doubt the population has been growing in recent years, its not clear if all states are contributing equally to this growth. Manipulating data to explore this has the potential to get quite cumbersome, but the modelr tools are designed to make this kind of hypothesis generation fairly painless.

Grouped data frames versus nested data frames

Were going to create a nested data frame, which we do by first creating a grouped data frame (which youve already done in another context).

Task 9: Create a data frame called by_state from the main data frame, that groups by state, and inspect it.

# SOLUTION
by_state <- ld.prism.pop %>% group_by(state)
by_state

## Source: local data frame [46,630 x 11]
## Groups: state [49]
## 
##      state          county cases  year  fips      prcp   avtemp str_year
##      <chr>           <chr> <int> <dbl> <dbl>     <dbl>    <dbl>    <chr>
## 1  Alabama  Autauga County     0  2000  1001  959.2705 18.10083  pop2000
## 2  Alabama  Baldwin County     1  2000  1003 1019.4288 19.67102  pop2000
## 3  Alabama  Barbour County     0  2000  1005 1005.5299 18.07437  pop2000
## 4  Alabama     Bibb County     0  2000  1007  993.6975 17.41745  pop2000
## 5  Alabama   Blount County     0  2000  1009 1178.8186 16.34566  pop2000
## 6  Alabama  Bullock County     0  2000  1011 1068.4641 17.66638  pop2000
## 7  Alabama   Butler County     0  2000  1013 1019.1419 18.65225  pop2000
## 8  Alabama  Calhoun County     0  2000  1015 1004.1205 16.09575  pop2000
## 9  Alabama Chambers County     0  2000  1017 1042.9926 16.42727  pop2000
## 10 Alabama Cherokee County     0  2000  1019 1146.2874 15.55200  pop2000
## # ... with 46,620 more rows, and 3 more variables: size <int>,
## #   log10size <dbl>, log10cases <dbl>
…
